…
```r
#find the difference between the maximum and the minimum monthly average temperature for each country.
Temp.one <- Temp.data %>% 
    select (Date,year, Country,Monthly.AverageTemp) %>% 
    na.omit() %>% 
    filter(year >= 1900) %>% 
    group_by(Country)  %>% 
  summarise(temp_diff = max(Monthly.AverageTemp) -
              min(Monthly.AverageTemp)) %>% 
    arrange(desc(temp_diff))
Temp.one
```    
```
### A tibble: 241 × 2
##        Country temp_diff
##          <chr>     <dbl>
##1    Kazakhstan    49.163
##2      Mongolia    48.010
##3        Russia    46.682
##4        Canada    43.532
##5    Uzbekistan    42.698
##6  Turkmenistan    40.579
##7       Belarus    39.338
##8       Finland    39.068
##9       Estonia    38.815
##10      Ukraine    38.660
### ... with 231 more rows
```
…
```r
#Create a new column to display the monthly average land temperatures in Fahrenheit (?F).
Temp.two <- Temp.data %>% na.omit %>% 
  select (year, Monthly.AverageTemp,Country) %>% 
  filter ( Country=='United States', year >= 1900 ) %>% 
  mutate(Temp_Fahrenheit= Monthly.AverageTemp  * 9/5 + 32 ) %>% 
  select (year, Temp_Fahrenheit)%>%
  group_by(year) %>% 
  summarise(Avg_land_temp=mean(Temp_Fahrenheit) )
#Display new column
Temp.two
```
Display of new converted farenheit column for 3.ii.a:
```
### A tibble: 114 × 2
##    year Avg_land_temp
##   <dbl>         <dbl>
##1   1900      48.23885
##2   1901      47.29085
##3   1902      47.21720
##4   1903      46.35905
##5   1904      46.76120
##6   1905      47.12420
##7   1906      47.40815
##8   1907      47.10920
##9   1908      47.76005
##10  1909      46.79930
### ... with 104 more rows
```
…
```r
#Find the difference between the maximum and the minimum temperatures 
#for each major city 
City.one<- City.data %>% 
  select (year,City,Monthly.AverageTemp) %>% 
  na.omit() %>% 
  filter(year >= 1900) %>% 
  group_by(City)  %>% 
  summarise(temp_diff = max(Monthly.AverageTemp) -
              min(Monthly.AverageTemp)) %>% 
  arrange(desc(temp_diff))
City.one
```
```
### A tibble: 99 × 2
##               City temp_diff
##              <chr>     <dbl>
##1            Harbin    53.281
##2         Changchun    49.844
##3            Moscow    43.956
##4          Shenyang    43.045
##5          Montreal    41.422
##6              Kiev    40.784
##7  Saint Petersburg    40.510
##8           Toronto    38.683
##9           Taiyuan    37.834
##10           Peking    36.953
### ... with 89 more rows
```
…
